x^2 + 2*x + 2
x^3 + 2*x + 1
x^4 + 2*x^3 + 2
x^5 + 2*x + 1
x^6 + 2*x^4 + x^2 + 2*x + 2
x^7 + 2*x^2 + 1
x^8 + 2*x^5 + x^4 + 2*x^2 + 2*x + 2
x^9 + 2*x^3 + 2*x^2 + x + 1
x^10 + 2*x^6 + 2*x^5 + 2*x^4 + x + 2
x^11 + 2*x^2 + 1
x^12 + x^6 + x^5 + x^4 + x^2 + 2
x^13 + 2*x + 1
x^14 + 2*x^9 + x^8 + x^7 + 2*x^6 + x^5 + 2*x^3 + x^2 + 2
x^15 + 2*x^8 + x^5 + 2*x^2 + x + 1
x^16 + 2*x^7 + 2*x^6 + 2*x^4 + 2*x^3 + 2*x^2 + x + 2
x^17 + 2*x + 1
x^18 + x^10 + 2*x^8 + 2*x^6 + x^5 + 2*x^4 + 2*x^2 + 2
x^19 + 2*x^2 + 1
x^20 + 2*x^13 + x^11 + x^10 + x^9 + x^8 + 2*x^5 + 2*x^4 + 2*x^3 + x + 2
x^21 + 2*x^10 + 2*x^8 + 2*x^6 + x^5 + 2*x^3 + 2*x + 1
x^22 + 2*x^11 + x^10 + 2*x^9 + 2*x^8 + x^7 + x^6 + x^5 + x^3 + 2*x + 2
x^23 + x^3 + x + 1
x^24 + x^14 + 2*x^11 + 2*x^8 + 2*x^6 + 2*x^4 + 2*x^3 + 2*x + 2
x^25 + 2*x^6 + 2*x^5 + x^3 + x^2 + 2*x + 1
x^26 + x^13 + 2*x^12 + 2*x^11 + 2*x^10 + 2*x^9 + 2*x^8 + 2*x^7 + 2*x^6 + x^3 + 2*x^2 + x + 2
x^27 + 2*x^7 + 1
x^28 + 2*x^14 + x^13 + x^12 + 2*x^11 + x^10 + x^9 + x^8 + 2*x^6 + 2*x^4 + x^3 + 2
x^29 + 2*x^4 + 1
x^30 + 2*x^20 + 2*x^18 + 2*x^17 + 2*x^16 + x^14 + 2*x^13 + 2*x^11 + 2*x^10 + 2*x^9 + 2*x^7 + x^6 + 2*x^5 + 2*x^4 + x^3 + 2*x^2 + 2*x + 2
x^31 + x^3 + x + 1
x^32 + 2*x^12 + 2*x^11 + 2*x^6 + x^5 + 2*x^4 + x^3 + x + 2
x^33 + 2*x^12 + x^11 + x^9 + x^6 + 2*x^5 + 2*x^4 + x^3 + 2*x^2 + 1
x^34 + x^18 + 2*x^17 + 2*x^16 + 2*x^14 + 2*x^12 + x^11 + 2*x^9 + x^7 + 2*x^6 + 2*x^4 + 2
x^35 + x^9 + x^8 + x^7 + 2*x^4 + 2*x^2 + x + 1
x^36 + x^21 + 2*x^20 + x^17 + x^16 + 2*x^14 + 2*x^13 + 2*x^11 + 2*x^10 + x^9 + 2*x^8 + 2*x^6 + 2*x^5 + x^3 + x^2 + x + 2
x^37 + x^3 + 2*x^2 + 2*x + 1
x^38 + x^19 + 2*x^18 + x^16 + 2*x^15 + 2*x^14 + 2*x^13 + 2*x^12 + x^10 + 2*x^9 + 2*x^8 + 2*x^6 + 2*x^5 + 2*x^4 + x^3 + 2*x + 2
x^39 + x^12 + 2*x^11 + 2*x^10 + x^9 + 2*x^7 + x^6 + x^4 + 2*x^2 + 1
x^40 + 2*x^23 + x^19 + 2*x^17 + x^16 + x^15 + 2*x^13 + 2*x^11 + x^10 + x^8 + 2*x^7 + 2*x^6 + x^5 + x^4 + 2*x^3 + x^2 + 2
x^41 + 2*x + 1
x^42 + x^29 + x^27 + 2*x^26 + 2*x^25 + x^23 + 2*x^22 + x^19 + x^18 + x^17 + 2*x^16 + x^15 + 2*x^14 + x^13 + x^12 + 2*x^11 + x^9 + 2*x^8 + x^5 + 2*x^3 + 2*x + 2
x^43 + x^3 + x + 1
x^44 + 2*x^23 + x^22 + x^21 + 2*x^20 + x^18 + x^17 + 2*x^15 + 2*x^14 + x^12 + x^10 + x^7 + x^6 + 2*x^5 + 2*x^4 + x^3 + x^2 + 2
x^45 + 2*x^20 + x^19 + 2*x^18 + 2*x^17 + 2*x^16 + x^15 + x^14 + 2*x^12 + x^11 + 2*x^9 + 2*x^8 + x^7 + 2*x^5 + x^4 + x^3 + 1
x^46 + 2*x^22 + x^21 + x^20 + x^19 + 2*x^17 + 2*x^15 + 2*x^14 + x^13 + x^10 + 2*x^9 + x^7 + x^5 + 2*x^4 + 2*x^3 + x^2 + 2
x^47 + 2*x^4 + 2*x^2 + 2*x + 1
x^48 + 2*x^31 + x^29 + 2*x^27 + 2*x^26 + 2*x^24 + x^22 + 2*x^21 + x^20 + x^19 + x^18 + x^17 + x^14 + 2*x^13 + 2*x^11 + 2*x^10 + 2*x^8 + 2*x^6 + x^4 + 2*x^3 + x^2 + 2
x^49 + x^8 + x^7 + x^5 + x^4 + x + 1
x^50 + 2*x^27 + x^25 + 2*x^23 + x^22 + x^21 + x^18 + x^17 + 2*x^15 + x^13 + 2*x^12 + 2*x^11 + x^10 + x^9 + x^7 + x^5 + x^2 + 2*x + 2
x^51 + 2*x^18 + x^17 + 2*x^16 + x^12 + 2*x^10 + 2*x^8 + 2*x^7 + 2*x^6 + x^4 + 2*x^3 + 2*x^2 + 2*x + 1
x^52 + x^51 + x^50 + x^49 + x^48 + x^47 + x^46 + x^45 + x^44 + x^43 + x^42 + x^41 + x^40 + x^39 + x^38 + x^37 + x^36 + x^35 + x^34 + x^33 + x^32 + x^31 + x^30 + x^29 + x^28 + x^27 + x^26 + x^25 + x^24 + x^23 + x^22 + x^21 + x^20 + x^19 + x^18 + x^17 + x^16 + x^15 + x^14 + x^13 + x^12 + x^11 + x^10 + x^9 + x^8 + x^7 + x^6 + x^5 + x^4 + x^3 + x^2 + x + 1
x^53 + 2*x^4 + 2*x^3 + 2*x^2 + 1
x^54 + x^35 + 2*x^33 + 2*x^32 + x^30 + x^29 + x^28 + 2*x^27 + 2*x^25 + 2*x^24 + 2*x^23 + 2*x^22 + x^20 + 2*x^19 + x^18 + x^17 + x^12 + x^11 + x^9 + 2*x^7 + x^6 + 2*x^4 + x^3 + x^2 + x + 2
x^55 + x^14 + x^13 + 2*x^11 + x^10 + x^8 + x^6 + 2*x^5 + x^4 + x^3 + 1
x^56 + 2*x^55 + 2*x^54 + 2*x^53 + 2*x^52 + 2*x^51 + 2*x^50 + 2*x^49 + 2*x^47 + 2*x^44 + 2*x^43 + x^42 + 2*x^41 + x^40 + 2*x^38 + x^37 + 2*x^35 + 2*x^33 + x^31 + 2*x^30 + x^29 + x^27 + x^26 + 2*x^25 + 2*x^19 + x^18 + x^17 + 2*x^14 + 2*x^13 + x^12 + 2*x^11 + 2*x^7 + x^6 + 2*x^5 + 2*x^3 + x^2 + 2*x + 1
x^57 + x^56 + 2*x^55 + x^54 + x^52 + 2*x^51 + 2*x^50 + x^48 + x^47 + x^46 + 2*x^45 + x^44 + 2*x^43 + x^42 + 2*x^41 + x^40 + 2*x^39 + x^37 + x^36 + 2*x^34 + x^33 + 2*x^32 + 2*x^31 + 2*x^29 + x^28 + x^25 + x^24 + 2*x^23 + x^22 + 2*x^21 + 2*x^20 + x^19 + 2*x^18 + x^17 + x^16 + x^15 + 2*x^13 + 2*x^12 + x^11 + x^10 + 2*x^9 + x^8 + 2*x^6 + 2*x^5 + 2*x^4 + x^2 + 2*x + 1
x^58 + x^56 + x^53 + 2*x^52 + x^48 + x^47 + 2*x^46 + 2*x^45 + 2*x^44 + 2*x^43 + 2*x^41 + x^40 + x^39 + 2*x^38 + 2*x^37 + 2*x^35 + x^32 + x^30 + x^29 + x^28 + x^27 + 2*x^26 + 2*x^25 + x^23 + 2*x^21 + x^18 + 2*x^17 + x^16 + 2*x^14 + 2*x^13 + 2*x^10 + 2*x^9 + x^8 + x^7 + x^5 + 2*x^4 + x^3 + 1
x^59 + x^3 + 2*x^2 + 2*x + 1
x^60 + x^44 + 2*x^41 + x^40 + 2*x^39 + 2*x^38 + 2*x^36 + x^35 + x^34 + 2*x^33 + x^32 + x^30 + 2*x^28 + 2*x^27 + 2*x^26 + 2*x^24 + 2*x^22 + x^21 + x^20 + 2*x^16 + 2*x^15 + x^14 + 2*x^11 + x^10 + 2*x^8 + 2*x^6 + x^5 + 2*x^4 + 2*x^3 + 2*x^2 + 2
x^61 + x^3 + 2*x^2 + 2*x + 1
x^62 + 2*x^61 + 2*x^60 + x^59 + 2*x^57 + 2*x^56 + 2*x^55 + 2*x^53 + 2*x^50 + x^48 + 2*x^47 + 2*x^46 + 2*x^45 + 2*x^44 + 2*x^42 + x^41 + x^39 + x^38 + x^35 + 2*x^34 + x^33 + x^32 + x^30 + x^27 + 2*x^26 + 2*x^25 + x^24 + 2*x^21 + 2*x^20 + x^19 + 2*x^17 + 2*x^15 + 2*x^14 + x^12 + x^11 + 2*x^7 + 2*x^6 + x + 1
x^63 + x^62 + 2*x^61 + x^60 + x^58 + 2*x^57 + 2*x^55 + 2*x^54 + 2*x^53 + 2*x^51 + 2*x^50 + x^49 + 2*x^48 + 2*x^46 + x^45 + 2*x^44 + 2*x^42 + x^41 + 2*x^39 + x^38 + x^36 + x^34 + x^33 + x^32 + 2*x^30 + x^28 + x^27 + x^25 + 2*x^21 + 2*x^20 + x^19 + x^16 + x^14 + 2*x^12 + x^11 + 2*x^10 + 2*x^9 + 2*x^6 + 2*x^5 + x^3 + x^2 + 2*x + 1
x^64 + x^63 + 2*x^61 + x^60 + 2*x^59 + x^58 + 2*x^57 + 2*x^55 + x^54 + 2*x^53 + 2*x^52 + 2*x^51 + 2*x^50 + x^46 + x^44 + 2*x^43 + x^41 + 2*x^40 + x^39 + 2*x^38 + 2*x^37 + x^36 + x^35 + x^34 + x^32 + x^31 + x^30 + x^29 + x^28 + 2*x^27 + x^26 + 2*x^25 + 2*x^23 + x^21 + 2*x^20 + x^19 + x^18 + x^17 + 2*x^16 + x^13 + x^12 + 2*x^11 + x^9 + x^7 + 2*x^6 + x^4 + 2*x^3 + 2*x + 1
x^65 + x^17 + 2*x^15 + 2*x^14 + 2*x^12 + 2*x^11 + x^10 + x^9 + 2*x^8 + 2*x^7 + 2*x^4 + 2*x^3 + x + 1
x^66 + x^46 + 2*x^43 + 2*x^41 + x^40 + 2*x^39 + x^38 + 2*x^36 + x^35 + x^32 + 2*x^31 + x^30 + x^29 + 2*x^27 + x^26 + x^24 + x^22 + x^18 + 2*x^17 + 2*x^16 + 2*x^14 + 2*x^11 + 2*x^9 + x^8 + 2*x^7 + 2*x^5 + x^3 + 2*x^2 + 2*x + 2
x^67 + 2*x^2 + 1
x^68 + x^67 + 2*x^66 + 2*x^65 + x^64 + x^62 + 2*x^61 + x^60 + x^59 + x^58 + 2*x^57 + x^56 + 2*x^55 + x^54 + 2*x^52 + 2*x^50 + 2*x^48 + 2*x^47 + 2*x^45 + x^44 + 2*x^43 + 2*x^42 + 2*x^40 + 2*x^39 + x^38 + x^36 + 2*x^35 + x^32 + 2*x^30 + x^28 + 2*x^27 + x^25 + x^23 + 2*x^20 + 2*x^19 + 2*x^18 + 2*x^17 + x^16 + 2*x^15 + 2*x^14 + x^13 + x^11 + 2*x^10 + 2*x^9 + 2*x^7 + 2*x^5 + 2*x^4 + x^3 + x^2 + x + 1
x^69 + 2*x^68 + x^67 + 2*x^65 + x^63 + x^60 + x^59 + x^58 + 2*x^57 + x^56 + x^54 + 2*x^53 + 2*x^52 + x^51 + 2*x^49 + 2*x^48 + 2*x^47 + 2*x^44 + 2*x^43 + 2*x^42 + x^41 + 2*x^40 + x^39 + 2*x^38 + x^37 + 2*x^36 + 2*x^34 + 2*x^32 + x^31 + x^30 + x^29 + x^28 + 2*x^27 + 2*x^25 + 2*x^24 + 2*x^23 + x^22 + 2*x^21 + 2*x^19 + x^17 + 2*x^16 + x^15 + x^13 + x^12 + 2*x^11 + 2*x^10 + 2*x^9 + x^7 + x^6 + x^4 + x^3 + x + 1
x^70 + 2*x^69 + x^68 + x^66 + 2*x^65 + 2*x^64 + 2*x^63 + x^61 + x^56 + 2*x^55 + x^54 + 2*x^53 + x^52 + 2*x^51 + 2*x^50 + 2*x^48 + x^44 + 2*x^42 + 2*x^41 + x^39 + 2*x^38 + 2*x^36 + x^34 + x^29 + x^28 + 2*x^24 + 2*x^22 + x^21 + 2*x^20 + x^19 + 2*x^18 + x^17 + x^16 + x^11 + x^10 + 2*x^6 + x^5 + x^4 + x^3 + x^2 + 2*x + 1
x^71 + x^4 + 2*x^2 + 2*x + 1
x^72 + x^71 + x^70 + x^69 + x^67 + x^66 + 2*x^64 + 2*x^63 + 2*x^61 + x^59 + x^58 + x^57 + x^55 + 2*x^54 + x^53 + x^52 + 2*x^48 + 2*x^47 + 2*x^46 + x^45 + 2*x^43 + 2*x^42 + 2*x^40 + x^38 + 2*x^35 + x^34 + x^33 + x^32 + x^31 + 2*x^29 + x^26 + x^25 + 2*x^24 + 2*x^21 + x^19 + 2*x^18 + 2*x^17 + 2*x^15 + x^13 + 2*x^12 + 2*x^9 + x^8 + 2*x^7 + x^5 + 1
x^73 + 2*x + 1
x^74 + 2*x^73 + 2*x^72 + 2*x^71 + 2*x^70 + x^69 + x^67 + 2*x^66 + 2*x^65 + 2*x^64 + x^62 + 2*x^60 + x^58 + 2*x^57 + 2*x^56 + x^55 + x^54 + x^53 + x^51 + 2*x^50 + x^49 + x^48 + 2*x^47 + x^46 + 2*x^42 + 2*x^41 + 2*x^39 + 2*x^37 + x^35 + 2*x^34 + x^33 + 2*x^32 + x^31 + x^30 + x^29 + x^28 + 2*x^26 + 2*x^25 + x^23 + 2*x^22 + 2*x^21 + x^20 + x^18 + 2*x^16 + x^15 + 2*x^13 + 2*x^11 + x^10 + 2*x^9 + x^8 + x^7 + 2*x^6 + x^5 + 2*x^4 + x^3 + x^2 + 2
x^75 + x^74 + 2*x^73 + 2*x^71 + 2*x^70 + x^68 + x^65 + x^64 + x^63 + x^62 + x^61 + 2*x^57 + 2*x^56 + 2*x^55 + 2*x^54 + x^53 + 2*x^51 + 2*x^50 + x^49 + x^48 + x^47 + 2*x^46 + x^45 + 2*x^44 + 2*x^43 + x^42 + 2*x^41 + 2*x^39 + 2*x^37 + 2*x^36 + 2*x^35 + x^31 + x^29 + x^26 + x^25 + x^24 + 2*x^23 + x^21 + 2*x^19 + 2*x^18 + x^15 + x^14 + 2*x^13 + x^12 + 2*x^6 + x^5 + 2*x^4 + 2*x^3 + x^2 + 1
x^76 + x^74 + x^73 + x^71 + 2*x^70 + 2*x^69 + 2*x^68 + x^67 + 2*x^66 + x^65 + x^63 + 2*x^62 + 2*x^61 + x^60 + 2*x^59 + 2*x^58 + 2*x^57 + 2*x^56 + 2*x^55 + x^54 + 2*x^53 + x^52 + x^51 + x^50 + 2*x^49 + x^48 + x^47 + 2*x^45 + 2*x^44 + x^43 + 2*x^42 + 2*x^38 + x^36 + 2*x^35 + 2*x^32 + x^30 + x^29 + x^27 + 2*x^26 + 2*x^23 + x^22 + x^21 + x^20 + x^19 + x^18 + x^16 + 2*x^15 + x^14 + 2*x^13 + 2*x^12 + x^9 + x^8 + x^7 + 2*x^6 + 2*x^5 + x^4 + x^2 + 2*x + 1
x^77 + 2*x^17 + 2*x^16 + x^15 + 2*x^12 + 2*x^11 + 2*x^8 + 2*x^7 + 2*x^6 + x^5 + x^3 + x^2 + 2*x + 1
x^78 + x^77 + x^76 + x^75 + x^74 + x^73 + x^72 + x^71 + x^70 + x^69 + x^68 + x^67 + x^66 + x^65 + x^64 + x^63 + x^62 + x^61 + x^60 + x^59 + x^58 + x^57 + x^56 + x^55 + x^54 + x^53 + x^52 + x^51 + x^50 + x^49 + x^48 + x^47 + x^46 + x^45 + x^44 + x^43 + x^42 + x^41 + x^40 + x^39 + x^38 + x^37 + x^36 + x^35 + x^34 + x^33 + x^32 + x^31 + x^30 + x^29 + x^28 + x^27 + x^26 + x^25 + x^24 + x^23 + x^22 + x^21 + x^20 + x^19 + x^18 + x^17 + x^16 + x^15 + x^14 + x^13 + x^12 + x^11 + x^10 + x^9 + x^8 + x^7 + x^6 + x^5 + x^4 + x^3 + x^2 + x + 1
x^79 + 2*x^4 + x^2 + 2*x + 1
x^80 + x^79 + x^78 + 2*x^76 + 2*x^72 + 2*x^71 + x^70 + x^69 + x^68 + x^67 + 2*x^66 + x^64 + x^61 + 2*x^60 + 2*x^59 + x^58 + 2*x^57 + x^55 + x^54 + x^53 + x^52 + 2*x^49 + 2*x^48 + 2*x^47 + 2*x^45 + 2*x^44 + 2*x^41 + 2*x^40 + 2*x^39 + 2*x^38 + x^37 + x^36 + 2*x^34 + 2*x^31 + 2*x^30 + 2*x^29 + 2*x^27 + x^26 + x^25 + 2*x^24 + 2*x^23 + x^22 + x^18 + x^17 + 2*x^16 + 2*x^15 + 2*x^14 + x^13 + 2*x^12 + x^11 + x^9 + 2*x^7 + x^6 + x^5 + x^3 + 2
x^81 + x^80 + x^79 + 2*x^78 + x^75 + 2*x^74 + 2*x^73 + x^72 + x^63 + 2*x^62 + 2*x^61 + x^60 + 2*x^57 + x^56 + x^55 + 2*x^54 + x^27 + 2*x^26 + 2*x^25 + x^24 + 2*x^21 + x^20 + x^19 + 2*x^18 + 2*x^9 + x^8 + x^7 + 2*x^6 + x^3 + 2*x^2 + 2*x + 1
x^82 + x^80 + x^79 + 2*x^77 + 2*x^76 + x^74 + x^72 + 2*x^71 + 2*x^68 + 2*x^66 + 2*x^65 + x^64 + 2*x^63 + x^62 + x^61 + x^60 + 2*x^59 + x^58 + 2*x^57 + x^55 + x^54 + 2*x^53 + 2*x^50 + 2*x^48 + 2*x^47 + 2*x^46 + 2*x^45 + 2*x^44 + x^43 + 2*x^42 + 2*x^41 + x^40 + 2*x^38 + 2*x^37 + 2*x^35 + 2*x^34 + 2*x^33 + 2*x^32 + x^31 + x^29 + 2*x^28 + x^27 + x^26 + 2*x^25 + x^24 + 2*x^23 + x^22 + 2*x^21 + 2*x^20 + x^19 + 2*x^18 + 2*x^17 + 2*x^15 + 2*x^14 + x^13 + x^10 + 2*x^9 + x^6 + x^5 + x^4 + x^3 + x + 2
x^83 + x^5 + 2*x^2 + 2*x + 1
x^84 + 2*x^83 + x^82 + x^80 + x^79 + 2*x^78 + x^77 + x^75 + x^74 + 2*x^73 + 2*x^72 + 2*x^70 + 2*x^68 + 2*x^67 + x^66 + x^62 + x^61 + 2*x^59 + 2*x^58 + 2*x^56 + 2*x^55 + 2*x^53 + x^52 + 2*x^49 + x^48 + x^45 + x^44 + x^43 + x^41 + x^39 + 2*x^38 + x^37 + 2*x^36 + 2*x^33 + 2*x^31 + 2*x^30 + x^28 + x^27 + 2*x^24 + 2*x^23 + x^22 + x^21 + x^20 + 2*x^19 + 2*x^18 + 2*x^17 + 2*x^16 + x^14 + 2*x^13 + 2*x^12 + 2*x^11 + x^9 + 2*x^8 + x^6 + 2*x^5 + 2*x^3 + 2*x^2 + 1
x^85 + 2*x^19 + 2*x^17 + 2*x^16 + 2*x^15 + 2*x^14 + x^13 + x^8 + x^7 + 2*x^6 + x^5 + x^3 + x^2 + 1
x^86 + 2*x^85 + 2*x^84 + x^83 + 2*x^81 + x^80 + 2*x^79 + x^78 + x^77 + 2*x^76 + 2*x^75 + 2*x^73 + x^72 + 2*x^70 + x^69 + x^68 + 2*x^67 + x^66 + x^65 + 2*x^63 + x^62 + 2*x^61 + 2*x^60 + x^59 + x^57 + 2*x^55 + 2*x^53 + x^52 + 2*x^51 + x^49 + x^48 + 2*x^46 + x^45 + x^44 + x^42 + 2*x^40 + x^37 + x^35 + x^32 + 2*x^30 + x^29 + x^27 + x^26 + 2*x^24 + 2*x^22 + x^21 + x^20 + 2*x^18 + 2*x^15 + 2*x^14 + 2*x^13 + 2*x^11 + x^10 + 2*x^6 + 2*x^5 + 2*x^3 + x^2 + 1
x^87 + 2*x^86 + x^85 + 2*x^84 + 2*x^82 + x^81 + x^80 + x^78 + 2*x^76 + 2*x^75 + x^74 + 2*x^70 + x^68 + 2*x^67 + 2*x^66 + 2*x^65 + 2*x^63 + 2*x^62 + x^61 + 2*x^60 + x^58 + 2*x^57 + 2*x^55 + x^53 + x^51 + 2*x^50 + 2*x^46 + x^45 + 2*x^42 + x^41 + x^40 + 2*x^38 + x^37 + 2*x^36 + 2*x^34 + 2*x^32 + x^30 + x^29 + 2*x^28 + 2*x^26 + x^25 + x^24 + x^22 + x^21 + x^18 + 2*x^17 + 2*x^16 + x^15 + x^13 + x^11 + 2*x^6 + 2*x^5 + 2*x^4 + 2*x^3 + 2*x + 1
x^88 + x^87 + x^86 + x^85 + x^84 + x^83 + x^82 + x^81 + x^80 + x^79 + x^78 + x^77 + x^76 + x^75 + x^74 + x^73 + x^72 + x^71 + x^70 + x^69 + x^68 + x^67 + x^66 + x^65 + x^64 + x^63 + x^62 + x^61 + x^60 + x^59 + x^58 + x^57 + x^56 + x^55 + x^54 + x^53 + x^52 + x^51 + x^50 + x^49 + x^48 + x^47 + x^46 + x^45 + x^44 + x^43 + x^42 + x^41 + x^40 + x^39 + x^38 + x^37 + x^36 + x^35 + x^34 + x^33 + x^32 + x^31 + x^30 + x^29 + x^28 + x^27 + x^26 + x^25 + x^24 + x^23 + x^22 + x^21 + x^20 + x^19 + x^18 + x^17 + x^16 + x^15 + x^14 + x^13 + x^12 + x^11 + x^10 + x^9 + x^8 + x^7 + x^6 + x^5 + x^4 + x^3 + x^2 + x + 1
x^89 + 2*x^3 + x^2 + 1
x^90 + 2*x^89 + x^88 + x^86 + x^85 + x^84 + x^83 + 2*x^82 + x^81 + 2*x^80 + 2*x^79 + x^78 + x^75 + x^74 + x^73 + 2*x^71 + 2*x^70 + 2*x^69 + 2*x^66 + x^65 + x^64 + 2*x^62 + x^58 + x^57 + 2*x^56 + x^55 + 2*x^54 + x^53 + x^52 + x^51 + 2*x^50 + x^47 + 2*x^46 + x^45 + 2*x^44 + 2*x^43 + x^42 + x^41 + 2*x^40 + 2*x^39 + 2*x^37 + 2*x^34 + 2*x^33 + x^32 + 2*x^31 + 2*x^29 + 2*x^28 + 2*x^26 + 2*x^25 + 2*x^23 + x^22 + 2*x^20 + 2*x^19 + 2*x^17 + 2*x^16 + x^14 + x^13 + 2*x^12 + x^7 + 2*x^6 + 2*x^4 + x^3 + x + 1
x^91 + x^17 + x^16 + 2*x^15 + 2*x^14 + 2*x^13 + 2*x^10 + 2*x^9 + x^8 + x^6 + x^5 + 2*x^4 + x^3 + 2*x^2 + x + 1
x^92 + x^91 + x^90 + x^89 + 2*x^87 + x^86 + x^84 + x^82 + 2*x^81 + x^80 + x^79 + 2*x^76 + x^75 + 2*x^74 + 2*x^73 + 2*x^71 + x^70 + 2*x^69 + x^67 + 2*x^66 + x^65 + x^63 + x^62 + 2*x^60 + x^59 + 2*x^57 + x^56 + 2*x^51 + x^50 + x^49 + x^46 + 2*x^45 + 2*x^44 + 2*x^43 + x^42 + 2*x^40 + 2*x^39 + 2*x^38 + 2*x^37 + x^36 + 2*x^34 + 2*x^33 + 2*x^32 + 2*x^30 + 2*x^29 + 2*x^27 + 2*x^26 + 2*x^25 + x^24 + x^22 + x^21 + x^20 + 2*x^19 + x^17 + x^16 + x^15 + x^14 + x^13 + 2*x^11 + 2*x^10 + x^8 + 2*x^7 + x^4 + x^2 + 2*x + 2
x^93 + x^92 + 2*x^91 + 2*x^90 + x^89 + x^87 + x^85 + x^84 + x^83 + 2*x^82 + 2*x^81 + x^80 + x^79 + 2*x^78 + 2*x^77 + x^76 + x^75 + x^74 + 2*x^69 + x^68 + 2*x^67 + 2*x^66 + x^65 + x^64 + x^63 + x^61 + 2*x^60 + 2*x^58 + x^57 + 2*x^56 + 2*x^55 + x^54 + 2*x^53 + x^52 + 2*x^51 + x^48 + x^45 + x^43 + 2*x^42 + 2*x^41 + x^40 + x^39 + 2*x^38 + x^37 + 2*x^36 + 2*x^35 + 2*x^33 + x^32 + 2*x^31 + 2*x^29 + 2*x^28 + 2*x^27 + x^26 + x^24 + 2*x^22 + 2*x^21 + 2*x^20 + 2*x^18 + x^16 + 2*x^15 + 2*x^14 + x^13 + 2*x^12 + x^11 + x^9 + 2*x^8 + x^7 + x^5 + x^4 + 2*x^3 + 2*x + 1
x^94 + 2*x^88 + 2*x^86 + 2*x^85 + 2*x^84 + x^82 + 2*x^81 + x^80 + x^79 + x^78 + 2*x^77 + x^76 + 2*x^75 + 2*x^74 + x^73 + 2*x^72 + x^71 + 2*x^70 + x^69 + 2*x^68 + x^67 + x^65 + 2*x^64 + 2*x^62 + x^61 + x^60 + x^59 + x^58 + x^57 + 2*x^55 + 2*x^52 + x^50 + x^49 + 2*x^48 + 2*x^47 + x^45 + 2*x^42 + x^41 + 2*x^40 + x^39 + x^37 + x^36 + x^35 + x^34 + 2*x^33 + x^30 + x^29 + 2*x^27 + 2*x^26 + x^21 + x^19 + x^16 + x^15 + x^14 + x^13 + x^12 + 2*x^11 + 2*x^8 + x^7 + x^6 + x^5 + x^3 + 2*x^2 + 2*x + 1
x^95 + 2*x^94 + 2*x^93 + 2*x^92 + 2*x^91 + 2*x^90 + 2*x^89 + 2*x^88 + 2*x^87 + x^86 + 2*x^84 + x^81 + x^79 + x^78 + 2*x^77 + 2*x^76 + x^74 + x^73 + x^72 + x^71 + x^69 + 2*x^68 + 2*x^66 + 2*x^65 + x^62 + 2*x^60 + 2*x^59 + x^58 + x^57 + x^56 + x^55 + 2*x^54 + 2*x^53 + 2*x^52 + x^49 + 2*x^48 + 2*x^47 + x^46 + 2*x^44 + x^43 + x^40 + x^38 + 2*x^35 + 2*x^34 + 2*x^31 + x^28 + 2*x^27 + x^26 + 2*x^25 + x^24 + x^23 + 2*x^21 + 2*x^20 + x^18 + 2*x^17 + x^14 + x^13 + 2*x^12 + x^11 + x^10 + 2*x^9 + x^7 + 2*x^6 + x^5 + x^2 + x + 2
x^96 + x^95 + x^94 + 2*x^92 + 2*x^90 + x^89 + 2*x^87 + x^84 + x^83 + 2*x^82 + x^81 + x^79 + x^78 + x^77 + x^76 + 2*x^75 + 2*x^74 + x^73 + 2*x^70 + 2*x^68 + 2*x^67 + x^66 + x^65 + x^64 + x^63 + 2*x^62 + x^61 + 2*x^60 + 2*x^58 + x^57 + 2*x^56 + 2*x^55 + 2*x^54 + x^53 + 2*x^51 + 2*x^50 + x^48 + x^46 + 2*x^45 + x^44 + 2*x^43 + 2*x^42 + x^41 + 2*x^40 + 2*x^36 + 2*x^35 + 2*x^34 + 2*x^33 + 2*x^31 + x^30 + 2*x^29 + 2*x^28 + x^27 + x^26 + 2*x^25 + 2*x^24 + 2*x^23 + 2*x^21 + x^20 + x^18 + x^17 + x^16 + 2*x^15 + 2*x^14 + x^12 + 2*x^11 + 2*x^9 + x^7 + x^6 + 2*x^5 + x^3 + x + 1
x^97 + 2*x^3 + 2*x^2 + 2*x + 1
x^98 + 2*x^97 + 2*x^96 + x^94 + 2*x^91 + 2*x^90 + 2*x^89 + x^88 + 2*x^87 + x^86 + 2*x^83 + x^82 + x^81 + 2*x^80 + x^79 + 2*x^77 + x^75 + x^74 + x^73 + 2*x^72 + 2*x^71 + 2*x^70 + 2*x^68 + 2*x^67 + 2*x^66 + x^65 + x^64 + 2*x^63 + x^62 + x^61 + 2*x^60 + x^59 + 2*x^57 + x^56 + x^55 + x^53 + 2*x^52 + 2*x^49 + x^48 + x^45 + 2*x^44 + x^41 + x^39 + x^37 + 2*x^32 + 2*x^30 + 2*x^29 + 2*x^28 + x^27 + x^26 + x^25 + 2*x^24 + x^23 + 2*x^22 + 2*x^21 + x^20 + x^19 + x^18 + 2*x^17 + x^14 + x^13 + x^12 + 2*x^11 + 2*x^10 + 2*x^8 + 2*x^7 + 2*x^5 + x^4 + x^3 + 2*x + 1
x^99 + 2*x^98 + x^97 + 2*x^95 + x^93 + 2*x^92 + 2*x^91 + 2*x^90 + 2*x^89 + 2*x^85 + 2*x^84 + 2*x^83 + x^82 + 2*x^80 + x^79 + 2*x^78 + 2*x^77 + x^75 + x^74 + x^72 + x^71 + x^70 + x^69 + x^68 + x^67 + x^66 + x^65 + 2*x^64 + 2*x^63 + 2*x^62 + x^61 + x^60 + 2*x^59 + 2*x^58 + x^57 + 2*x^55 + x^54 + x^51 + 2*x^50 + x^49 + 2*x^48 + 2*x^45 + x^44 + 2*x^43 + 2*x^42 + 2*x^40 + x^38 + x^33 + 2*x^32 + x^31 + 2*x^29 + x^27 + x^26 + 2*x^25 + x^24 + x^23 + x^22 + x^21 + 2*x^20 + x^19 + x^17 + 2*x^16 + x^13 + x^12 + 2*x^11 + x^10 + x^7 + 2*x^5 + 2*x^4 + x^2 + 2*x + 2
x^100 + x^99 + x^98 + x^97 + x^96 + x^95 + x^94 + x^93 + x^92 + x^91 + x^90 + x^89 + x^88 + x^87 + x^86 + x^85 + x^84 + x^83 + x^82 + x^81 + x^80 + x^79 + x^78 + x^77 + x^76 + x^75 + x^74 + x^73 + x^72 + x^71 + x^70 + x^69 + x^68 + x^67 + x^66 + x^65 + x^64 + x^63 + x^62 + x^61 + x^60 + x^59 + x^58 + x^57 + x^56 + x^55 + x^54 + x^53 + x^52 + x^51 + x^50 + x^49 + x^48 + x^47 + x^46 + x^45 + x^44 + x^43 + x^42 + x^41 + x^40 + x^39 + x^38 + x^37 + x^36 + x^35 + x^34 + x^33 + x^32 + x^31 + x^30 + x^29 + x^28 + x^27 + x^26 + x^25 + x^24 + x^23 + x^22 + x^21 + x^20 + x^19 + x^18 + x^17 + x^16 + x^15 + x^14 + x^13 + x^12 + x^11 + x^10 + x^9 + x^8 + x^7 + x^6 + x^5 + x^4 + x^3 + x^2 + x + 1
x^101 + 2*x^4 + 2*x^3 + 2*x^2 + 1
x^102 + 2*x^101 + x^100 + 2*x^99 + 2*x^98 + x^97 + x^95 + 2*x^94 + 2*x^92 + x^88 + x^86 + 2*x^84 + x^83 + 2*x^80 + x^79 + x^78 + x^76 + 2*x^74 + 2*x^72 + 2*x^71 + 2*x^70 + x^67 + 2*x^64 + x^63 + x^62 + x^59 + x^57 + 2*x^56 + x^55 + x^54 + 2*x^51 + x^49 + 2*x^48 + 2*x^47 + x^46 + 2*x^45 + 2*x^44 + x^43 + 2*x^41 + x^39 + 2*x^37 + 2*x^36 + x^34 + 2*x^33 + 2*x^32 + 2*x^31 + x^30 + x^29 + x^28 + 2*x^27 + 2*x^26 + x^24 + x^23 + 2*x^20 + x^19 + 2*x^18 + 2*x^15 + 2*x^12 + 2*x^10 + x^8 + 2*x^4 + x^3 + 2*x^2 + x + 1
x^103 + 2*x^3 + 2*x^2 + x + 1
x^104 + 2*x^103 + 2*x^102 + x^101 + x^96 + x^94 + 2*x^92 + 2*x^91 + x^89 + 2*x^88 + x^87 + 2*x^86 + 2*x^85 + x^83 + x^81 + x^80 + 2*x^79 + x^78 + x^75 + 2*x^74 + x^72 + x^71 + x^69 + 2*x^67 + 2*x^66 + 2*x^65 + x^62 + 2*x^61 + 2*x^60 + x^58 + x^57 + x^56 + 2*x^55 + x^54 + x^52 + 2*x^50 + x^47 + 2*x^45 + x^44 + 2*x^43 + 2*x^42 + 2*x^40 + 2*x^39 + x^36 + x^35 + x^34 + 2*x^31 + 2*x^30 + 2*x^29 + x^28 + 2*x^27 + 2*x^25 + 2*x^24 + x^23 + x^20 + 2*x^19 + 2*x^17 + x^16 + 2*x^12 + x^7 + 2*x^5 + 2*x^4 + 2*x^3 + x^2 + x + 2
x^105 + 2*x^104 + 2*x^101 + x^100 + 2*x^99 + 2*x^98 + x^97 + x^95 + x^94 + 2*x^93 + x^92 + x^91 + 2*x^90 + x^89 + 2*x^87 + 2*x^86 + 2*x^85 + 2*x^84 + x^83 + x^82 + x^81 + 2*x^80 + 2*x^79 + x^78 + x^77 + x^76 + 2*x^75 + 2*x^74 + x^71 + x^70 + x^68 + x^67 + x^66 + x^65 + x^64 + x^63 + 2*x^62 + 2*x^60 + 2*x^59 + 2*x^58 + x^57 + 2*x^56 + 2*x^55 + x^54 + 2*x^52 + 2*x^51 + x^48 + x^47 + 2*x^45 + x^44 + 2*x^43 + x^41 + 2*x^39 + 2*x^38 + x^37 + x^34 + 2*x^33 + x^32 + 2*x^31 + 2*x^29 + x^28 + 2*x^26 + 2*x^21 + x^20 + 2*x^18 + x^17 + 2*x^16 + 2*x^15 + x^14 + 2*x^13 + 2*x^12 + 2*x^11 + 2*x^10 + x^7 + x^5 + 2*x^4 + 2*x^3 + 2*x^2 + 2
x^106 + x^104 + 2*x^103 + x^96 + x^95 + 2*x^94 + x^93 + x^92 + 2*x^90 + x^89 + 2*x^88 + 2*x^87 + 2*x^86 + x^84 + x^83 + 2*x^82 + 2*x^81 + x^79 + 2*x^77 + x^76 + x^74 + 2*x^73 + 2*x^70 + x^65 + 2*x^64 + x^61 + x^60 + 2*x^59 + x^58 + x^57 + x^56 + x^54 + x^53 + 2*x^52 + x^50 + x^49 + 2*x^48 + x^46 + x^45 + x^44 + x^43 + x^42 + 2*x^40 + 2*x^37 + x^34 + 2*x^32 + x^31 + x^29 + 2*x^28 + 2*x^27 + 2*x^26 + 2*x^25 + 2*x^23 + 2*x^22 + x^21 + 2*x^20 + x^17 + x^16 + x^15 + 2*x^14 + 2*x^11 + x^9 + x^7 + x^6 + 2*x^5 + x^4 + x^3 + x^2 + 2
x^107 + 2*x^3 + 1
x^108 + 2*x^107 + x^105 + x^103 + x^102 + 2*x^101 + x^100 + 2*x^99 + 2*x^98 + x^97 + 2*x^96 + x^93 + x^92 + x^91 + 2*x^90 + x^89 + 2*x^87 + 2*x^84 + 2*x^83 + 2*x^82 + x^81 + 2*x^80 + x^78 + x^77 + x^76 + x^75 + x^74 + x^73 + 2*x^72 + 2*x^70 + x^69 + x^68 + 2*x^64 + 2*x^63 + 2*x^62 + 2*x^61 + x^60 + x^59 + 2*x^57 + 2*x^56 + 2*x^54 + x^53 + x^52 + x^50 + x^47 + 2*x^45 + x^41 + 2*x^40 + x^39 + 2*x^37 + x^36 + 2*x^35 + x^34 + x^33 + x^31 + 2*x^30 + x^29 + 2*x^28 + x^27 + 2*x^26 + x^25 + x^23 + 2*x^22 + x^20 + 2*x^19 + 2*x^18 + x^17 + x^16 + 2*x^14 + 2*x^13 + x^12 + x^11 + 2*x^9 + 2*x^8 + 2*x^7 + x^6 + x^4 + x^3 + x + 2
x^109 + 2*x^4 + 2*x^3 + x^2 + 1
x^110 + 2*x^109 + x^108 + 2*x^107 + x^106 + x^104 + x^103 + 2*x^102 + 2*x^99 + 2*x^96 + 2*x^95 + x^93 + 2*x^92 + 2*x^91 + x^90 + 2*x^89 + 2*x^88 + 2*x^87 + x^86 + 2*x^85 + 2*x^83 + x^82 + 2*x^81 + 2*x^80 + x^79 + x^78 + x^76 + x^75 + x^74 + x^73 + x^70 + x^68 + x^66 + 2*x^64 + x^63 + x^62 + x^61 + x^60 + 2*x^59 + 2*x^58 + x^57 + x^55 + 2*x^54 + 2*x^52 + 2*x^51 + 2*x^49 + 2*x^48 + 2*x^46 + x^45 + 2*x^44 + 2*x^43 + x^40 + 2*x^38 + x^37 + 2*x^36 + x^35 + x^34 + x^33 + x^30 + x^29 + 2*x^28 + x^25 + 2*x^24 + x^23 + x^22 + x^21 + x^20 + x^19 + 2*x^18 + 2*x^16 + x^14 + 2*x^13 + 2*x^12 + 2*x^11 + x^10 + 2*x^9 + x^8 + x^7 + x^4 + x^3 + 2*x^2 + 1
x^111 + x^110 + 2*x^109 + x^108 + x^106 + x^105 + x^104 + x^103 + x^102 + 2*x^101 + 2*x^100 + x^99 + 2*x^98 + x^96 + 2*x^95 + 2*x^94 + 2*x^93 + 2*x^91 + 2*x^90 + 2*x^89 + x^86 + 2*x^85 + x^84 + x^83 + x^81 + x^80 + 2*x^78 + 2*x^77 + x^76 + 2*x^75 + x^73 + x^72 + 2*x^71 + 2*x^70 + 2*x^66 + 2*x^64 + 2*x^63 + 2*x^62 + 2*x^61 + x^60 + x^56 + x^55 + x^53 + 2*x^52 + 2*x^51 + 2*x^50 + 2*x^49 + x^48 + 2*x^47 + x^43 + 2*x^42 + 2*x^39 + x^38 + x^37 + 2*x^35 + x^34 + 2*x^33 + 2*x^32 + x^31 + 2*x^30 + x^29 + 2*x^27 + x^26 + x^25 + x^24 + 2*x^23 + x^22 + 2*x^21 + x^19 + 2*x^17 + 2*x^15 + 2*x^14 + 2*x^11 + x^10 + x^6 + x^5 + x^4 + x^2 + 1
x^112 + x^111 + x^110 + x^109 + x^108 + x^107 + x^106 + x^105 + x^104 + x^103 + x^102 + x^101 + x^100 + x^99 + x^98 + x^97 + x^96 + x^95 + x^94 + x^93 + x^92 + x^91 + x^90 + x^89 + x^88 + x^87 + x^86 + x^85 + x^84 + x^83 + x^82 + x^81 + x^80 + x^79 + x^78 + x^77 + x^76 + x^75 + x^74 + x^73 + x^72 + x^71 + x^70 + x^69 + x^68 + x^67 + x^66 + x^65 + x^64 + x^63 + x^62 + x^61 + x^60 + x^59 + x^58 + x^57 + x^56 + x^55 + x^54 + x^53 + x^52 + x^51 + x^50 + x^49 + x^48 + x^47 + x^46 + x^45 + x^44 + x^43 + x^42 + x^41 + x^40 + x^39 + x^38 + x^37 + x^36 + x^35 + x^34 + x^33 + x^32 + x^31 + x^30 + x^29 + x^28 + x^27 + x^26 + x^25 + x^24 + x^23 + x^22 + x^21 + x^20 + x^19 + x^18 + x^17 + x^16 + x^15 + x^14 + x^13 + x^12 + x^11 + x^10 + x^9 + x^8 + x^7 + x^6 + x^5 + x^4 + x^3 + x^2 + x + 1
x^113 + x^3 + 2*x^2 + 2*x + 1
x^114 + x^113 + 2*x^112 + 2*x^111 + 2*x^110 + 2*x^107 + x^105 + x^101 + 2*x^100 + 2*x^99 + x^97 + x^94 + x^93 + 2*x^91 + x^89 + x^86 + 2*x^84 + 2*x^83 + x^82 + 2*x^81 + 2*x^80 + 2*x^79 + 2*x^77 + x^76 + 2*x^72 + 2*x^71 + 2*x^69 + x^68 + 2*x^66 + 2*x^65 + x^64 + 2*x^63 + 2*x^62 + 2*x^59 + 2*x^58 + 2*x^57 + x^56 + 2*x^55 + x^54 + 2*x^53 + 2*x^52 + 2*x^51 + x^50 + 2*x^46 + 2*x^45 + x^43 + x^41 + 2*x^38 + 2*x^37 + 2*x^35 + 2*x^34 + 2*x^33 + x^30 + x^29 + x^28 + 2*x^27 + x^26 + x^25 + 2*x^24 + x^23 + x^22 + x^21 + 2*x^19 + 2*x^18 + 2*x^17 + x^15 + 2*x^12 + 2*x^11 + 2*x^10 + 2*x^9 + x^8 + 2*x^7 + x^6 + x^5 + 2*x^4 + x^2 + 2*x + 1
x^115 + x^113 + 2*x^107 + 2*x^106 + x^105 + 2*x^100 + 2*x^99 + 2*x^98 + 2*x^96 + x^94 + 2*x^93 + 2*x^92 + x^91 + 2*x^89 + 2*x^86 + x^85 + x^82 + 2*x^79 + x^78 + 2*x^77 + x^76 + 2*x^75 + 2*x^74 + 2*x^73 + x^72 + 2*x^71 + x^70 + 2*x^69 + x^66 + 2*x^65 + x^64 + 2*x^63 + x^62 + x^61 + x^60 + 2*x^59 + 2*x^58 + x^55 + 2*x^54 + 2*x^52 + x^50 + 2*x^47 + x^46 + 2*x^44 + x^43 + x^42 + 2*x^40 + 2*x^39 + 2*x^38 + x^37 + 2*x^35 + x^34 + x^33 + x^32 + 2*x^31 + x^30 + 2*x^29 + x^28 + 2*x^27 + x^23 + 2*x^21 + x^20 + x^18 + x^15 + x^12 + x^10 + 2*x^9 + x^8 + 2*x^6 + 2*x^5 + 2*x^4 + x^2 + x + 2
x^116 + x^115 + x^114 + 2*x^112 + x^111 + x^110 + x^109 + x^107 + 2*x^106 + x^105 + x^102 + 2*x^100 + x^99 + 2*x^98 + x^97 + x^95 + 2*x^93 + x^91 + 2*x^90 + x^88 + 2*x^86 + 2*x^84 + x^83 + x^82 + 2*x^81 + 2*x^80 + 2*x^78 + x^77 + x^76 + 2*x^74 + 2*x^71 + x^70 + x^69 + x^67 + 2*x^66 + x^65 + 2*x^64 + 2*x^62 + 2*x^61 + 2*x^60 + 2*x^58 + x^53 + x^52 + x^51 + 2*x^48 + x^46 + x^45 + 2*x^44 + 2*x^42 + 2*x^41 + 2*x^40 + 2*x^39 + 2*x^36 + x^33 + 2*x^32 + x^29 + x^28 + x^27 + x^24 + 2*x^19 + 2*x^18 + 2*x^17 + 2*x^16 + 2*x^12 + x^11 + 2*x^10 + 2*x^9 + 2*x^8 + 2*x^4 + x^2 + 2*x + 2
x^117 + x^116 + 2*x^115 + 2*x^113 + 2*x^112 + x^111 + x^109 + 2*x^108 + x^107 + 2*x^106 + 2*x^105 + 2*x^103 + 2*x^100 + x^99 + x^98 + x^97 + x^96 + x^95 + x^93 + x^91 + x^90 + 2*x^88 + x^87 + 2*x^86 + 2*x^85 + x^84 + x^82 + x^79 + 2*x^78 + x^77 + x^72 + x^71 + x^70 + x^69 + x^68 + 2*x^67 + 2*x^66 + 2*x^65 + x^63 + 2*x^62 + 2*x^61 + x^59 + x^58 + 2*x^57 + 2*x^56 + 2*x^54 + 2*x^49 + 2*x^48 + x^47 + x^46 + x^45 + x^44 + x^43 + x^41 + x^39 + x^38 + 2*x^35 + 2*x^34 + 2*x^33 + x^32 + x^30 + x^29 + x^28 + 2*x^26 + 2*x^25 + 2*x^24 + 2*x^21 + x^20 + x^19 + 2*x^18 + x^17 + 2*x^14 + x^13 + 2*x^11 + 2*x^10 + 2*x^9 + x^7 + x^4 + x^2 + 2
x^118 + 2*x^115 + 2*x^112 + 2*x^110 + 2*x^108 + x^107 + x^104 + 2*x^102 + 2*x^100 + x^99 + x^95 + x^94 + 2*x^93 + x^92 + 2*x^89 + 2*x^86 + 2*x^84 + x^82 + 2*x^81 + 2*x^80 + 2*x^79 + x^78 + 2*x^77 + x^75 + x^74 + x^73 + x^72 + x^71 + x^70 + 2*x^67 + 2*x^63 + 2*x^62 + x^61 + x^60 + x^56 + 2*x^54 + x^51 + 2*x^50 + 2*x^49 + 2*x^47 + 2*x^46 + 2*x^45 + 2*x^44 + 2*x^42 + 2*x^40 + x^39 + x^38 + x^36 + x^35 + x^32 + x^31 + 2*x^30 + 2*x^29 + 2*x^28 + x^26 + 2*x^25 + x^23 + 2*x^21 + 2*x^20 + x^19 + 2*x^18 + x^17 + 2*x^16 + 2*x^15 + 2*x^13 + 2*x^11 + x^10 + x^7 + 2*x^6 + x^4 + 2*x^3 + x^2 + 1
x^119 + x^118 + x^116 + 2*x^114 + 2*x^112 + x^110 + 2*x^109 + 2*x^108 + 2*x^107 + 2*x^106 + x^105 + x^104 + 2*x^103 + x^101 + x^100 + x^99 + x^98 + 2*x^97 + x^96 + x^94 + 2*x^93 + x^92 + x^90 + x^89 + 2*x^85 + 2*x^84 + x^83 + x^81 + x^80 + 2*x^77 + x^76 + x^75 + 2*x^74 + x^72 + x^71 + x^69 + 2*x^68 + x^67 + 2*x^65 + x^64 + x^63 + 2*x^60 + x^59 + 2*x^56 + x^53 + x^52 + 2*x^51 + x^48 + 2*x^47 + x^45 + 2*x^43 + x^42 + x^40 + x^39 + 2*x^37 + x^36 + x^35 + x^33 + 2*x^32 + 2*x^31 + x^30 + 2*x^29 + 2*x^28 + 2*x^27 + 2*x^26 + x^25 + x^22 + x^20 + 2*x^19 + x^18 + 2*x^17 + 2*x^16 + 2*x^13 + x^9 + 2*x^8 + x^7 + x^6 + x^5 + x^4 + x + 1
x^120 + 2*x^119 + x^118 + 2*x^117 + 2*x^116 + x^114 + x^113 + 2*x^112 + x^110 + x^109 + 2*x^104 + 2*x^103 + 2*x^101 + x^100 + x^99 + x^98 + x^97 + 2*x^96 + x^92 + x^91 + 2*x^90 + 2*x^89 + 2*x^85 + x^84 + x^82 + x^81 + x^78 + 2*x^77 + 2*x^75 + 2*x^74 + x^73 + x^72 + 2*x^70 + x^67 + x^65 + 2*x^64 + 2*x^62 + x^61 + x^60 + x^57 + x^56 + x^54 + 2*x^52 + x^51 + 2*x^50 + 2*x^47 + x^45 + x^41 + x^38 + 2*x^37 + 2*x^36 + 2*x^35 + x^34 + 2*x^33 + x^32 + 2*x^31 + x^29 + x^26 + x^24 + 2*x^23 + x^22 + 2*x^21 + x^20 + x^19 + 2*x^18 + x^17 + x^16 + x^15 + x^12 + x^11 + x^9 + x^8 + x^5 + 2*x^4 + x^3 + 2
x^121 + x^13 + 2*x^12 + x^11 + 2*x^9 + 2*x^8 + x^6 + x^5 + 2*x^4 + 2*x^3 + x^2 + 2*x + 1
x^122 + 2*x^121 + 2*x^120 + 2*x^118 + x^117 + x^115 + x^114 + 2*x^113 + x^112 + x^111 + x^110 + 2*x^109 + x^106 + x^105 + 2*x^102 + 2*x^101 + 2*x^100 + x^99 + x^96 + x^95 + x^94 + x^93 + x^92 + 2*x^90 + x^89 + 2*x^87 + x^86 + 2*x^85 + 2*x^82 + 2*x^81 + x^80 + x^78 + 2*x^77 + x^76 + 2*x^73 + 2*x^72 + x^71 + 2*x^70 + x^68 + 2*x^67 + 2*x^65 + 2*x^64 + 2*x^63 + x^61 + x^58 + x^57 + 2*x^56 + x^55 + 2*x^54 + 2*x^52 + x^51 + x^50 + 2*x^48 + x^47 + x^45 + 2*x^44 + 2*x^41 + 2*x^38 + 2*x^36 + 2*x^35 + 2*x^33 + 2*x^32 + x^31 + x^30 + 2*x^29 + x^27 + 2*x^24 + 2*x^23 + x^22 + x^21 + 2*x^19 + 2*x^17 + 2*x^16 + 2*x^15 + 2*x^12 + x^11 + x^10 + 2*x^8 + 2*x^7 + 2*x^5 + 2*x^4 + 2*x^3 + 2*x^2 + x + 1
x^123 + 2*x^122 + x^121 + 2*x^119 + x^117 + 2*x^113 + 2*x^111 + 2*x^110 + 2*x^107 + 2*x^106 + 2*x^104 + x^103 + x^101 + 2*x^99 + 2*x^96 + x^94 + 2*x^93 + 2*x^92 + x^91 + x^89 + x^86 + x^85 + 2*x^84 + 2*x^83 + 2*x^81 + 2*x^80 + 2*x^79 + x^78 + x^77 + x^75 + 2*x^72 + x^71 + x^68 + x^67 + 2*x^66 + x^65 + x^64 + 2*x^62 + x^61 + x^60 + x^58 + x^57 + x^56 + 2*x^53 + 2*x^52 + 2*x^50 + x^48 + 2*x^46 + x^45 + x^44 + x^43 + x^41 + 2*x^40 + x^39 + 2*x^36 + x^35 + 2*x^33 + 2*x^32 + 2*x^30 + 2*x^28 + 2*x^27 + 2*x^24 + x^23 + x^21 + 2*x^17 + x^16 + x^15 + x^13 + 2*x^11 + 2*x^10 + 2*x^9 + 2*x^8 + 2*x^6 + x^5 + x^4 + 2*x^3 + 1
x^124 + x^122 + 2*x^121 + 2*x^119 + x^117 + 2*x^114 + x^113 + x^112 + 2*x^111 + x^110 + 2*x^107 + x^104 + 2*x^102 + x^100 + 2*x^98 + x^97 + 2*x^96 + 2*x^95 + x^94 + 2*x^93 + x^92 + 2*x^91 + x^90 + 2*x^89 + 2*x^87 + 2*x^86 + 2*x^84 + 2*x^83 + 2*x^81 + x^80 + 2*x^79 + 2*x^77 + 2*x^75 + x^74 + x^73 + 2*x^68 + 2*x^67 + x^66 + 2*x^63 + x^62 + x^61 + 2*x^60 + x^56 + x^55 + 2*x^53 + x^52 + x^51 + 2*x^49 + 2*x^48 + x^47 + 2*x^46 + 2*x^45 + 2*x^44 + x^43 + x^42 + 2*x^41 + x^40 + x^39 + x^38 + 2*x^36 + x^35 + x^34 + x^33 + 2*x^31 + x^30 + x^29 + 2*x^28 + x^25 + x^23 + 2*x^20 + 2*x^19 + 2*x^18 + 2*x^15 + 2*x^14 + 2*x^12 + x^11 + x^10 + 2*x^9 + 2*x^8 + x^7 + x^4 + 2*x^3 + 2
x^125 + x^124 + 2*x^123 + x^120 + 2*x^119 + 2*x^118 + x^117 + x^108 + x^90 + x^89 + x^88 + 2*x^87 + x^84 + 2*x^83 + 2*x^82 + x^81 + x^36 + x^35 + x^34 + 2*x^33 + x^30 + 2*x^29 + 2*x^28 + x^27 + x^17 + x^16 + 2*x^15 + x^12 + 2*x^11 + 2*x^10 + x^9 + 1
x^126 + x^125 + x^124 + x^123 + x^122 + x^121 + x^120 + x^119 + x^118 + x^117 + x^116 + x^115 + x^114 + x^113 + x^112 + x^111 + x^110 + x^109 + x^108 + x^107 + x^106 + x^105 + x^104 + x^103 + x^102 + x^101 + x^100 + x^99 + x^98 + x^97 + x^96 + x^95 + x^94 + x^93 + x^92 + x^91 + x^90 + x^89 + x^88 + x^87 + x^86 + x^85 + x^84 + x^83 + x^82 + x^81 + x^80 + x^79 + x^78 + x^77 + x^76 + x^75 + x^74 + x^73 + x^72 + x^71 + x^70 + x^69 + x^68 + x^67 + x^66 + x^65 + x^64 + x^63 + x^62 + x^61 + x^60 + x^59 + x^58 + x^57 + x^56 + x^55 + x^54 + x^53 + x^52 + x^51 + x^50 + x^49 + x^48 + x^47 + x^46 + x^45 + x^44 + x^43 + x^42 + x^41 + x^40 + x^39 + x^38 + x^37 + x^36 + x^35 + x^34 + x^33 + x^32 + x^31 + x^30 + x^29 + x^28 + x^27 + x^26 + x^25 + x^24 + x^23 + x^22 + x^21 + x^20 + x^19 + x^18 + x^17 + x^16 + x^15 + x^14 + x^13 + x^12 + x^11 + x^10 + x^9 + x^8 + x^7 + x^6 + x^5 + x^4 + x^3 + x^2 + x + 1
x^127 + x^4 + x^3 + x^2 + 1
x^128 + x^127 + 2*x^126 + x^123 + x^122 + x^121 + 2*x^120 + 2*x^117 + 2*x^110 + 2*x^109 + x^108 + x^87 + x^86 + x^85 + 2*x^84 + 2*x^81 + x^33 + x^32 + x^31 + 2*x^30 + 2*x^27 + x^20 + x^19 + 2*x^18 + x^15 + x^14 + x^13 + 2*x^12 + 2*x^9 + 2*x^2 + 2*x + 1
x^129 + x^128 + 2*x^127 + 2*x^125 + 2*x^124 + x^122 + 2*x^120 + 2*x^118 + 2*x^117 + x^114 + x^113 + 2*x^112 + 2*x^111 + 2*x^110 + x^108 + 2*x^107 + x^106 + x^105 + x^103 + 2*x^102 + 2*x^101 + 2*x^99 + x^98 + 2*x^93 + x^91 + x^88 + x^87 + x^86 + x^85 + x^82 + 2*x^81 + 2*x^80 + 2*x^79 + x^78 + x^75 + x^73 + x^71 + x^70 + 2*x^69 + 2*x^67 + 2*x^64 + x^63 + x^61 + 2*x^60 + 2*x^58 + x^55 + 2*x^53 + 2*x^52 + x^49 + 2*x^48 + x^46 + x^45 + 2*x^44 + x^43 + x^41 + 2*x^40 + x^38 + x^37 + x^34 + 2*x^33 + 2*x^32 + 2*x^30 + x^28 + x^26 + 2*x^24 + x^23 + x^21 + x^20 + 2*x^19 + 2*x^18 + x^16 + x^15 + 2*x^14 + 2*x^13 + x^12 + x^11 + x^10 + x^7 + 2*x^6 + 2*x^5 + x^4 + x^3 + x^2 + x + 1
x^130 + 2*x^129 + x^128 + x^126 + 2*x^125 + x^123 + x^122 + 2*x^121 + 2*x^116 + x^115 + 2*x^114 + x^113 + x^112 + x^111 + x^110 + x^108 + x^106 + x^104 + x^102 + x^101 + 2*x^100 + x^98 + x^97 + x^94 + 2*x^93 + 2*x^92 + 2*x^91 + 2*x^90 + 2*x^87 + 2*x^86 + x^85 + x^84 + x^83 + x^82 + x^81 + 2*x^80 + x^79 + x^76 + x^74 + x^71 + x^70 + x^69 + 2*x^68 + 2*x^67 + x^66 + 2*x^62 + 2*x^61 + 2*x^60 + 2*x^58 + 2*x^56 + 2*x^55 + x^53 + x^51 + x^49 + 2*x^48 + 2*x^47 + 2*x^46 + x^45 + x^43 + x^42 + 2*x^41 + 2*x^39 + 2*x^37 + 2*x^36 + x^34 + x^33 + x^32 + 2*x^31 + x^28 + x^27 + x^26 + x^25 + x^24 + x^23 + 2*x^22 + x^21 + x^20 + 2*x^17 + 2*x^15 + x^14 + 2*x^13 + x^9 + x^8 + x^5 + x^4 + x^3 + x^2 + 2*x + 2
x^131 + 2*x^5 + x^4 + 2*x^3 + x^2 + 1
x^132 + x^131 + x^130 + 2*x^128 + x^126 + x^124 + 2*x^123 + x^122 + 2*x^120 + 2*x^118 + 2*x^117 + x^116 + x^115 + x^114 + x^113 + x^110 + x^109 + x^107 + 2*x^104 + 2*x^103 + 2*x^102 + x^101 + x^99 + 2*x^98 + x^97 + 2*x^95 + x^93 + x^88 + x^87 + 2*x^85 + 2*x^84 + 2*x^83 + 2*x^81 + 2*x^80 + x^79 + x^78 + 2*x^76 + x^74 + x^73 + x^71 + x^70 + x^68 + x^67 + x^66 + 2*x^65 + x^64 + x^63 + 2*x^62 + x^61 + x^60 + 2*x^56 + 2*x^55 + 2*x^54 + 2*x^53 + 2*x^52 + 2*x^48 + 2*x^47 + 2*x^46 + x^45 + x^44 + x^43 + x^40 + x^39 + 2*x^37 + 2*x^36 + x^35 + x^32 + x^28 + x^27 + x^26 + x^25 + 2*x^24 + x^22 + x^21 + x^18 + 2*x^15 + x^14 + x^11 + x^10 + x^9 + x^8 + x^4 + 2*x^3 + 2*x + 2
x^133 + x^129 + 2*x^127 + 2*x^124 + 2*x^121 + 2*x^118 + 2*x^117 + x^115 + 2*x^114 + 2*x^112 + 2*x^109 + x^108 + 2*x^106 + x^105 + 2*x^103 + x^102 + x^101 + x^100 + x^99 + 2*x^96 + x^95 + 2*x^94 + x^93 + x^92 + x^91 + x^90 + x^89 + 2*x^88 + x^85 + 2*x^84 + 2*x^82 + 2*x^81 + 2*x^79 + x^78 + 2*x^77 + 2*x^76 + 2*x^74 + x^73 + 2*x^72 + 2*x^71 + 2*x^69 + 2*x^66 + x^65 + 2*x^61 + x^58 + x^57 + 2*x^55 + 2*x^53 + 2*x^51 + x^50 + 2*x^49 + x^47 + 2*x^46 + x^45 + 2*x^44 + 2*x^43 + 2*x^42 + x^40 + x^39 + x^38 + x^35 + x^31 + 2*x^29 + x^28 + x^27 + x^26 + 2*x^25 + x^24 + 2*x^23 + 2*x^21 + 2*x^20 + x^19 + x^18 + 2*x^17 + 2*x^16 + 2*x^15 + x^14 + x^11 + 2*x^10 + 2*x^8 + x^6 + x^5 + x^4 + x^3 + 2*x + 1
x^134 + 2*x^133 + 2*x^132 + x^130 + 2*x^127 + 2*x^126 + x^125 + 2*x^124 + x^122 + 2*x^121 + x^119 + 2*x^117 + x^115 + 2*x^114 + x^110 + 2*x^109 + x^107 + x^106 + 2*x^105 + 2*x^104 + x^101 + 2*x^98 + x^97 + 2*x^96 + x^94 + 2*x^93 + x^90 + x^89 + 2*x^86 + x^85 + 2*x^83 + x^81 + 2*x^80 + 2*x^78 + 2*x^77 + 2*x^76 + x^74 + x^72 + 2*x^71 + x^68 + 2*x^67 + x^66 + 2*x^65 + 2*x^64 + 2*x^63 + 2*x^62 + 2*x^60 + x^58 + 2*x^57 + x^54 + 2*x^52 + 2*x^51 + x^50 + 2*x^49 + 2*x^48 + 2*x^46 + 2*x^45 + 2*x^44 + x^42 + 2*x^40 + x^39 + 2*x^38 + 2*x^37 + 2*x^33 + x^32 + 2*x^31 + x^30 + x^29 + 2*x^28 + x^27 + x^26 + 2*x^25 + 2*x^23 + x^19 + 2*x^18 + 2*x^17 + 2*x^15 + 2*x^13 + 2*x^12 + 2*x^10 + 2*x^9 + x^8 + 2*x + 2
x^135 + 2*x^134 + 2*x^131 + x^129 + x^128 + 2*x^126 + x^125 + x^123 + 2*x^122 + 2*x^119 + x^118 + 2*x^117 + 2*x^116 + 2*x^115 + x^113 + 2*x^112 + 2*x^111 + x^109 + 2*x^108 + 2*x^107 + x^103 + 2*x^102 + x^101 + 2*x^100 + 2*x^98 + 2*x^97 + x^96 + 2*x^95 + 2*x^94 + x^93 + 2*x^92 + 2*x^91 + x^90 + x^89 + x^85 + 2*x^84 + x^83 + 2*x^81 + x^80 + 2*x^79 + 2*x^78 + 2*x^77 + x^76 + 2*x^75 + x^74 + x^73 + 2*x^72 + x^69 + x^67 + 2*x^64 + 2*x^63 + x^62 + 2*x^60 + x^59 + 2*x^57 + 2*x^56 + 2*x^54 + x^53 + 2*x^52 + 2*x^51 + x^46 + 2*x^45 + 2*x^43 + 2*x^42 + x^39 + 2*x^38 + 2*x^37 + 2*x^36 + x^34 + x^33 + 2*x^32 + x^31 + x^30 + 2*x^29 + 2*x^28 + 2*x^27 + 2*x^26 + 2*x^25 + x^24 + 2*x^23 + 2*x^22 + x^21 + 2*x^17 + x^16 + x^15 + 2*x^14 + 2*x^13 + 2*x^12 + 2*x^11 + x^10 + x^9 + 2*x^8 + 2*x^7 + 2*x^5 + 2*x^4 + x^2 + 2*x + 2
x^136 + x^135 + x^134 + x^133 + x^132 + x^131 + x^130 + x^129 + x^128 + x^127 + x^126 + x^125 + x^124 + x^123 + x^122 + x^121 + x^120 + x^119 + x^118 + x^117 + x^116 + x^115 + x^114 + x^113 + x^112 + x^111 + x^110 + x^109 + x^108 + x^107 + x^106 + x^105 + x^104 + x^103 + x^102 + x^101 + x^100 + x^99 + x^98 + x^97 + x^96 + x^95 + x^94 + x^93 + x^92 + x^91 + x^90 + x^89 + x^88 + x^87 + x^86 + x^85 + x^84 + x^83 + x^82 + x^81 + x^80 + x^79 + x^78 + x^77 + x^76 + x^75 + x^74 + x^73 + x^72 + x^71 + x^70 + x^69 + x^68 + x^67 + x^66 + x^65 + x^64 + x^63 + x^62 + x^61 + x^60 + x^59 + x^58 + x^57 + x^56 + x^55 + x^54 + x^53 + x^52 + x^51 + x^50 + x^49 + x^48 + x^47 + x^46 + x^45 + x^44 + x^43 + x^42 + x^41 + x^40 + x^39 + x^38 + x^37 + x^36 + x^35 + x^34 + x^33 + x^32 + x^31 + x^30 + x^29 + x^28 + x^27 + x^26 + x^25 + x^24 + x^23 + x^22 + x^21 + x^20 + x^19 + x^18 + x^17 + x^16 + x^15 + x^14 + x^13 + x^12 + x^11 + x^10 + x^9 + x^8 + x^7 + x^6 + x^5 + x^4 + x^3 + x^2 + x + 1
x^137 + 2*x + 1
x^138 + x^137 + x^136 + x^135 + x^134 + x^133 + x^132 + x^131 + x^130 + x^129 + x^128 + x^127 + x^126 + x^125 + x^124 + x^123 + x^122 + x^121 + x^120 + x^119 + x^118 + x^117 + x^116 + x^115 + x^114 + x^113 + x^112 + x^111 + x^110 + x^109 + x^108 + x^107 + x^106 + x^105 + x^104 + x^103 + x^102 + x^101 + x^100 + x^99 + x^98 + x^97 + x^96 + x^95 + x^94 + x^93 + x^92 + x^91 + x^90 + x^89 + x^88 + x^87 + x^86 + x^85 + x^84 + x^83 + x^82 + x^81 + x^80 + x^79 + x^78 + x^77 + x^76 + x^75 + x^74 + x^73 + x^72 + x^71 + x^70 + x^69 + x^68 + x^67 + x^66 + x^65 + x^64 + x^63 + x^62 + x^61 + x^60 + x^59 + x^58 + x^57 + x^56 + x^55 + x^54 + x^53 + x^52 + x^51 + x^50 + x^49 + x^48 + x^47 + x^46 + x^45 + x^44 + x^43 + x^42 + x^41 + x^40 + x^39 + x^38 + x^37 + x^36 + x^35 + x^34 + x^33 + x^32 + x^31 + x^30 + x^29 + x^28 + x^27 + x^26 + x^25 + x^24 + x^23 + x^22 + x^21 + x^20 + x^19 + x^18 + x^17 + x^16 + x^15 + x^14 + x^13 + x^12 + x^11 + x^10 + x^9 + x^8 + x^7 + x^6 + x^5 + x^4 + x^3 + x^2 + x + 1
x^139 + x^5 + x^3 + 2*x^2 + x + 1
x^140 + 2*x^139 + x^138 + 2*x^137 + x^136 + x^135 + 2*x^134 + x^131 + 2*x^129 + x^126 + 2*x^123 + x^122 + x^121 + x^118 + x^117 + 2*x^116 + 2*x^113 + x^111 + x^110 + 2*x^109 + 2*x^107 + x^105 + x^104 + 2*x^102 + 2*x^101 + x^99 + x^97 + 2*x^94 + 2*x^93 + x^92 + x^91 + 2*x^89 + 2*x^88 + x^87 + x^86 + x^83 + x^82 + x^80 + x^79 + 2*x^78 + x^76 + 2*x^75 + x^74 + 2*x^73 + 2*x^72 + 2*x^70 + 2*x^66 + x^65 + 2*x^64 + x^63 + x^62 + 2*x^61 + x^60 + 2*x^58 + x^56 + 2*x^55 + 2*x^54 + x^53 + x^52 + 2*x^51 + 2*x^48 + 2*x^47 + 2*x^46 + 2*x^43 + 2*x^42 + 2*x^40 + 2*x^39 + x^38 + x^37 + x^36 + x^34 + 2*x^33 + 2*x^32 + 2*x^30 + x^28 + x^27 + x^25 + x^24 + 2*x^23 + x^22 + x^21 + x^20 + x^19 + x^17 + 2*x^12 + x^11 + x^10 + x^9 + x^8 + x^6 + x^5 + x^4 + x^2 + 1
x^141 + 2*x^140 + x^139 + 2*x^137 + x^136 + x^135 + 2*x^134 + 2*x^132 + 2*x^131 + x^130 + 2*x^129 + x^128 + 2*x^124 + 2*x^123 + x^122 + x^121 + 2*x^119 + x^116 + x^115 + 2*x^114 + 2*x^113 + 2*x^112 + x^109 + 2*x^108 + 2*x^107 + x^106 + 2*x^105 + x^103 + x^101 + 2*x^98 + 2*x^97 + x^96 + x^95 + 2*x^94 + x^92 + 2*x^90 + 2*x^89 + 2*x^88 + 2*x^87 + x^86 + x^85 + x^84 + x^83 + x^81 + x^80 + 2*x^78 + x^77 + 2*x^76 + 2*x^75 + 2*x^73 + x^72 + x^71 + x^66 + 2*x^63 + 2*x^61 + x^60 + 2*x^59 + x^58 + 2*x^57 + x^56 + x^55 + x^54 + 2*x^53 + x^51 + x^50 + 2*x^49 + x^47 + x^46 + 2*x^45 + 2*x^44 + x^43 + x^41 + x^40 + 2*x^39 + x^38 + 2*x^37 + x^35 + x^34 + 2*x^33 + x^30 + x^29 + x^28 + x^27 + 2*x^23 + 2*x^22 + x^21 + x^20 + x^19 + 2*x^17 + x^16 + 2*x^15 + x^14 + x^12 + x^10 + 2*x^9 + x^8 + 2*x^7 + x^6 + 2*x^5 + 2*x^3 + x + 2
x^142 + x^140 + x^139 + 2*x^137 + 2*x^136 + x^134 + x^133 + x^132 + x^130 + x^128 + 2*x^127 + 2*x^126 + x^125 + 2*x^124 + x^123 + 2*x^122 + x^121 + x^119 + 2*x^117 + x^114 + 2*x^113 + x^112 + x^111 + 2*x^110 + 2*x^109 + 2*x^107 + x^106 + 2*x^105 + 2*x^104 + 2*x^103 + x^102 + x^99 + x^98 + 2*x^96 + 2*x^95 + x^94 + x^93 + 2*x^90 + x^89 + 2*x^88 + x^87 + x^86 + 2*x^85 + x^83 + 2*x^81 + 2*x^79 + 2*x^75 + x^73 + x^72 + x^71 + x^70 + x^68 + 2*x^64 + 2*x^63 + 2*x^61 + x^60 + 2*x^59 + x^58 + x^57 + 2*x^56 + 2*x^55 + 2*x^54 + x^53 + x^50 + x^49 + x^48 + x^47 + 2*x^46 + x^45 + x^42 + x^41 + 2*x^40 + 2*x^39 + 2*x^38 + 2*x^36 + 2*x^35 + 2*x^34 + x^33 + 2*x^30 + x^28 + x^27 + x^26 + 2*x^25 + x^24 + x^23 + x^20 + x^19 + x^18 + x^17 + 2*x^16 + x^13 + x^11 + 2*x^10 + 2*x^9 + x^8 + x^3 + x^2 + 1
x^143 + 2*x^142 + 2*x^141 + x^139 + x^138 + x^137 + x^136 + 2*x^135 + 2*x^134 + x^133 + 2*x^132 + x^131 + 2*x^130 + x^125 + x^124 + x^121 + 2*x^119 + 2*x^117 + 2*x^116 + x^115 + 2*x^113 + x^111 + 2*x^110 + 2*x^109 + x^108 + 2*x^107 + 2*x^106 + x^104 + 2*x^103 + x^101 + x^100 + 2*x^99 + x^98 + x^96 + 2*x^95 + x^94 + 2*x^92 + x^91 + 2*x^88 + x^87 + x^86 + x^85 + x^84 + 2*x^83 + 2*x^82 + 2*x^81 + x^80 + x^78 + 2*x^77 + x^76 + x^75 + 2*x^74 + x^72 + x^69 + x^68 + x^67 + x^66 + 2*x^65 + 2*x^64 + 2*x^63 + 2*x^62 + x^60 + x^59 + 2*x^57 + x^56 + x^55 + x^52 + 2*x^50 + x^49 + 2*x^46 + x^44 + x^42 + x^40 + x^39 + x^38 + x^37 + 2*x^35 + 2*x^34 + x^33 + 2*x^31 + x^30 + 2*x^29 + x^28 + 2*x^27 + x^26 + 2*x^25 + x^24 + x^22 + 2*x^21 + x^20 + 2*x^19 + 2*x^18 + 2*x^17 + x^15 + x^14 + x^13 + 2*x^12 + 2*x^9 + 2*x^8 + 2*x^6 + 2*x^5 + 2*x^4 + 2*x^3 + 2*x^2 + 1
x^144 + 2*x^143 + 2*x^142 + x^141 + x^140 + x^139 + x^138 + 2*x^137 + x^136 + 2*x^135 + x^134 + 2*x^133 + 2*x^132 + x^131 + 2*x^130 + 2*x^129 + 2*x^128 + 2*x^124 + x^120 + 2*x^119 + 2*x^116 + 2*x^115 + x^114 + 2*x^112 + x^111 + 2*x^110 + 2*x^109 + 2*x^108 + 2*x^106 + 2*x^104 + 2*x^103 + x^101 + x^100 + x^99 + 2*x^98 + 2*x^97 + 2*x^96 + 2*x^94 + 2*x^93 + x^92 + 2*x^91 + 2*x^90 + x^89 + x^88 + 2*x^85 + x^84 + x^83 + x^81 + 2*x^80 + 2*x^77 + 2*x^75 + 2*x^73 + 2*x^70 + x^69 + 2*x^68 + 2*x^64 + 2*x^63 + x^60 + x^59 + x^58 + x^56 + x^54 + 2*x^52 + x^49 + 2*x^48 + x^47 + 2*x^46 + x^43 + x^41 + x^40 + x^39 + 2*x^38 + x^37 + x^36 + x^35 + 2*x^34 + x^31 + x^30 + 2*x^29 + 2*x^28 + 2*x^27 + x^26 + x^25 + 2*x^24 + 2*x^22 + x^20 + x^18 + 2*x^17 + 2*x^15 + 2*x^14 + x^11 + x^10 + 2*x^8 + 2*x^7 + 2*x^6 + x^5 + x^3 + 2*x^2 + 2*x + 1
x^145 + x^143 + 2*x^142 + 2*x^140 + x^139 + 2*x^136 + x^135 + x^134 + x^133 + 2*x^132 + 2*x^131 + x^128 + 2*x^127 + 2*x^125 + 2*x^123 + 2*x^122 + 2*x^120 + x^119 + 2*x^118 + 2*x^116 + x^114 + 2*x^113 + 2*x^111 + x^110 + 2*x^109 + x^108 + x^107 + x^106 + x^105 + x^104 + 2*x^103 + x^102 + 2*x^101 + x^100 + 2*x^99 + 2*x^98 + x^97 + x^95 + x^90 + 2*x^89 + 2*x^88 + x^86 + x^85 + x^83 + x^82 + x^81 + x^80 + x^78 + 2*x^76 + 2*x^74 + x^71 + x^70 + x^68 + x^67 + 2*x^66 + 2*x^65 + 2*x^61 + 2*x^60 + 2*x^58 + 2*x^57 + 2*x^54 + x^53 + 2*x^50 + 2*x^48 + x^45 + 2*x^44 + x^43 + 2*x^41 + 2*x^38 + 2*x^37 + 2*x^36 + x^33 + x^32 + 2*x^30 + x^26 + 2*x^25 + 2*x^24 + x^23 + 2*x^22 + x^21 + 2*x^20 + 2*x^19 + 2*x^18 + 2*x^17 + 2*x^16 + 2*x^14 + 2*x^12 + x^10 + x^8 + 2*x^7 + 2*x^6 + x^5 + x^4 + 2*x^3 + 2*x^2 + 2*x + 2
x^146 + 2*x^145 + 2*x^144 + 2*x^143 + 2*x^142 + x^141 + x^139 + 2*x^138 + x^136 + 2*x^135 + 2*x^133 + 2*x^130 + x^128 + 2*x^127 + 2*x^124 + 2*x^123 + x^122 + x^121 + x^120 + 2*x^119 + x^116 + 2*x^115 + 2*x^114 + 2*x^113 + x^112 + x^111 + 2*x^110 + x^109 + x^106 + 2*x^105 + x^103 + 2*x^101 + 2*x^99 + 2*x^97 + x^96 + x^94 + x^92 + 2*x^90 + 2*x^88 + x^87 + x^86 + x^85 + 2*x^83 + x^81 + x^80 + x^79 + 2*x^76 + x^75 + 2*x^74 + 2*x^73 + 2*x^72 + 2*x^69 + x^68 + 2*x^67 + 2*x^64 + x^63 + x^62 + x^61 + 2*x^60 + 2*x^56 + 2*x^55 + x^54 + x^53 + x^52 + 2*x^50 + x^49 + 2*x^48 + 2*x^47 + x^46 + x^44 + 2*x^43 + 2*x^42 + x^41 + 2*x^40 + 2*x^39 + 2*x^38 + x^37 + x^35 + x^30 + 2*x^29 + x^27 + 2*x^26 + 2*x^25 + x^24 + x^23 + 2*x^22 + 2*x^21 + x^19 + 2*x^17 + 2*x^14 + x^12 + x^10 + 2*x^9 + x^2 + 2*x + 1
x^147 + x^146 + 2*x^145 + 2*x^144 + x^143 + 2*x^140 + x^139 + x^138 + x^137 + x^134 + 2*x^133 + x^132 + 2*x^131 + 2*x^129 + 2*x^128 + 2*x^125 + x^124 + 2*x^121 + x^120 + x^119 + x^118 + 2*x^117 + 2*x^116 + x^115 + 2*x^114 + x^113 + 2*x^111 + 2*x^109 + 2*x^108 + 2*x^105 + 2*x^104 + 2*x^102 + 2*x^100 + 2*x^99 + x^96 + x^95 + x^94 + 2*x^93 + x^92 + x^90 + x^88 + 2*x^85 + 2*x^81 + 2*x^77 + 2*x^76 + 2*x^73 + x^72 + 2*x^70 + x^69 + 2*x^67 + x^66 + 2*x^65 + x^63 + x^62 + 2*x^60 + 2*x^57 + 2*x^56 + x^54 + 2*x^51 + 2*x^50 + 2*x^49 + x^48 + x^47 + x^46 + 2*x^45 + x^44 + 2*x^43 + x^42 + 2*x^41 + x^40 + 2*x^38 + x^37 + x^35 + x^33 + x^32 + 2*x^31 + x^30 + x^29 + 2*x^27 + x^26 + x^25 + 2*x^24 + x^22 + 2*x^20 + x^19 + 2*x^17 + x^16 + 2*x^15 + x^13 + 2*x^12 + 2*x^8 + 2*x^7 + x^2 + 2*x + 2
x^148 + x^147 + x^146 + x^145 + x^144 + x^143 + x^142 + x^141 + x^140 + x^139 + x^138 + x^137 + x^136 + x^135 + x^134 + x^133 + x^132 + x^131 + x^130 + x^129 + x^128 + x^127 + x^126 + x^125 + x^124 + x^123 + x^122 + x^121 + x^120 + x^119 + x^118 + x^117 + x^116 + x^115 + x^114 + x^113 + x^112 + x^111 + x^110 + x^109 + x^108 + x^107 + x^106 + x^105 + x^104 + x^103 + x^102 + x^101 + x^100 + x^99 + x^98 + x^97 + x^96 + x^95 + x^94 + x^93 + x^92 + x^91 + x^90 + x^89 + x^88 + x^87 + x^86 + x^85 + x^84 + x^83 + x^82 + x^81 + x^80 + x^79 + x^78 + x^77 + x^76 + x^75 + x^74 + x^73 + x^72 + x^71 + x^70 + x^69 + x^68 + x^67 + x^66 + x^65 + x^64 + x^63 + x^62 + x^61 + x^60 + x^59 + x^58 + x^57 + x^56 + x^55 + x^54 + x^53 + x^52 + x^51 + x^50 + x^49 + x^48 + x^47 + x^46 + x^45 + x^44 + x^43 + x^42 + x^41 + x^40 + x^39 + x^38 + x^37 + x^36 + x^35 + x^34 + x^33 + x^32 + x^31 + x^30 + x^29 + x^28 + x^27 + x^26 + x^25 + x^24 + x^23 + x^22 + x^21 + x^20 + x^19 + x^18 + x^17 + x^16 + x^15 + x^14 + x^13 + x^12 + x^11 + x^10 + x^9 + x^8 + x^7 + x^6 + x^5 + x^4 + x^3 + x^2 + x + 1
x^149 + 2*x^6 + x^4 + x^3 + 2*x^2 + 2*x + 1
